%YAML 1.1
%TAG !u! tag:unity3d.com,2011:
--- !u!114 &11400000
MonoBehaviour:
  m_ObjectHideFlags: 0
  m_PrefabParentObject: {fileID: 0}
  m_PrefabInternal: {fileID: 0}
  m_GameObject: {fileID: 0}
  m_Enabled: 1
  m_EditorHideFlags: 0
  m_Script: {fileID: 11500000, guid: d559df2af41f528429adebf151597d5f, type: 3}
  m_Name: ButtonUpdater
  m_EditorClassIdentifier: 
  _objectReferences: []
  _serializedStateKeys: []
  _serializedStateValues: []
  ButtonTypes:
  - Invalid
  - Login
  - LoginFacebook
  - MoreGames
  - Currency
  - Help
  - Leaderboard
  - Shop
  - Play
  - Settings
  - Back
  - Score
  - Refresh
  - Home
  - Upload
  - Ads
  - Credits
  - Restore
  - MoreGamesItem
  - ShopItem
  - CoinItem
  - Popup001
  - Popup002
  - Popup003
  - Close
  - Submit
  - Pass
  - ReplaceAllTiles
