%YAML 1.1
%TAG !u! tag:unity3d.com,2011:
--- !u!114 &11400000
MonoBehaviour:
  m_ObjectHideFlags: 0
  m_PrefabParentObject: {fileID: 0}
  m_PrefabInternal: {fileID: 0}
  m_GameObject: {fileID: 0}
  m_Enabled: 1
  m_EditorHideFlags: 0
  m_Script: {fileID: 11500000, guid: a6ff6092d88ac304f92c41e3a135227c, type: 3}
  m_Name: KickLeft
  m_EditorClassIdentifier: 
  _objectReferences:
  - {fileID: 11400000, guid: 33cf2b9387c9b8b41850170613556cfd, type: 2}
  - {fileID: 11400000, guid: 670284df02a1f934ab2e3fef3d33bb00, type: 2}
  - {fileID: 11400000, guid: 473f96860be23de419a39d695aea05e6, type: 2}
  - {fileID: 11400000, guid: 98c37376ea6fade41a99810d05233b3a, type: 2}
  _serializedStateKeys:
  - Branches
  _serializedStateValues:
  - '[{"Conditions":[0,1,2],"Output":3}]'
  Clip: {fileID: 7400000, guid: ce8a7098226991b4089e60f8da0ac630, type: 3}
