%YAML 1.1
%TAG !u! tag:unity3d.com,2011:
--- !u!114 &11400000
MonoBehaviour:
  m_ObjectHideFlags: 0
  m_PrefabParentObject: {fileID: 0}
  m_PrefabInternal: {fileID: 0}
  m_GameObject: {fileID: 0}
  m_Enabled: 1
  m_EditorHideFlags: 0
  m_Script: {fileID: 11500000, guid: f81399c9077ac0740921adc12844546c, type: 3}
  m_Name: WindowConditionA
  m_EditorClassIdentifier: 
  _objectReferences: []
  _serializedStateKeys: []
  _serializedStateValues: []
  MinWindow: 0.13
  MaxWindow: 0.768
  triggeredWindow: 0
